200;235;10678;0
400;25;9565;0
600;31;12924;26
800;45;15423;49
1000;131;25253;100
1200;2761;34627;62
1400;5153;59262;186
1600;7261;180992;313
1800;8432;313919;487
2000;12136;579670;793
2200;14133;758938;1186
2400;18906;919911;1564
2600;20873;1142531;2009
2800;26608;1393797;2510
3000;30146;1634154;2990
3200;33300;1887741;3498
3400;39380;2203105;4129
3600;46388;2559278;4840
3800;51089;2844994;5415
4000;56241;3203860;6129
4200;61725;3558553;6839
4400;68217;4009819;7532
4600;75203;4429981;8371
4800;83174;4882048;9274
5000;90392;5286642;10083
5200;98102;5774394;11060
5400;108839;6377087;12266
5600;116645;6853323;13220
5800;123759;7289008;14088
6000;132638;7812267;15136
6200;141857;8354719;16222
6400;151421;8962272;17436
6600;161262;9514585;18540
6800;173801;10263693;20041
7000;184915;10947359;21408
7200;192443;11361229;22234
7400;204037;12085429;23683
7600;219626;12999056;25509
7800;232361;13740027;26992
8000;238868;14153161;27821
8200;254698;15111152;29735
8400;265215;15713444;30941
8600;279819;16584885;32684
8800;295620;17531273;34575
9000;305316;18103409;35720
9200;325764;19289741;38093
9400;341483;20278858;40070
9600;346127;20517419;40548
9800;367598;21830133;43173
10000;380764;22587076;44687
